tezt/_regressions/rpc/alpha.proxy.others.out

./tezos-client --mode proxy rpc get /chains/main/blocks/head/context/constants
{ "proof_of_work_nonce_size": 8, "nonce_length": 32,
  "max_anon_ops_per_block": 132, "max_operation_data_length": 32768,
  "max_proposals_per_delegate": 20, "max_micheline_node_count": 50000,
  "max_micheline_bytes_limit": 50000,
  "max_allowed_global_constants_depth": 10000, "cache_layout_size": 3,
  "michelson_maximum_type_size": 2001, "preserved_cycles": 2,
  "blocks_per_cycle": 8, "blocks_per_commitment": 4,
  "blocks_per_stake_snapshot": 4, "cycles_per_voting_period": 8,
  "hard_gas_limit_per_operation": "1040000",
  "hard_gas_limit_per_block": "5200000", "proof_of_work_threshold": "-1",
  "tokens_per_roll": "6000000000", "seed_nonce_revelation_tip": "125000",
  "origination_size": 257, "baking_reward_fixed_portion": "333333",
  "baking_reward_bonus_per_slot": "3921",
  "endorsing_reward_per_slot": "2604", "cost_per_byte": "250",
  "hard_storage_limit_per_operation": "60000", "quorum_min": 2000,
  "quorum_max": 7000, "min_proposal_quorum": 500,
  "liquidity_baking_subsidy": "2500000",
  "liquidity_baking_sunset_level": 128,
  "liquidity_baking_escape_ema_threshold": 666667,
  "max_operations_time_to_live": 120, "minimal_block_delay": "1",
  "delay_increment_per_round": "1", "consensus_committee_size": 256,
  "consensus_threshold": 0,
  "minimal_participation_ratio": { "numerator": 2, "denominator": 3 },
  "max_slashing_period": 2, "frozen_deposits_percentage": 5,
  "double_baking_punishment": "640000000",
  "ratio_of_frozen_deposits_slashed_per_double_endorsement":
    { "numerator": 1, "denominator": 2 }, "cache_script_size": 100000000,
  "cache_stake_distribution_cycles": 8, "cache_sampler_state_cycles": 8,
  "tx_rollup_enable": false, "tx_rollup_origination_size": 60000,
  "tx_rollup_hard_size_limit_per_inbox": 100000,
  "tx_rollup_hard_size_limit_per_message": 5000,
  "tx_rollup_commitment_bond": "10000000000",
  "tx_rollup_finality_period": 2000, "tx_rollup_withdraw_period": 60000,
  "tx_rollup_max_unfinalized_levels": 2100,
  "tx_rollup_max_messages_per_inbox": 1010,
  "tx_rollup_max_finalized_levels": 60100, "sc_rollup_enable": false,
  "sc_rollup_origination_size": 6314,
  "sc_rollup_challenge_window_in_blocks": 20160 }
protocol of proxy unspecified, using the node's protocol: ProtoGenesisGenesisGenesisGenesisGenesisGenesk612im

./tezos-client --mode proxy rpc get /chains/main/blocks/head/helpers/baking_rights
[ { "level": 2, "delegate": "[PUBLIC_KEY_HASH]",
    "round": 0, "estimated_time": "[TIMESTAMP]" },
  { "level": 2, "delegate": "[PUBLIC_KEY_HASH]",
    "round": 1, "estimated_time": "[TIMESTAMP]" },
  { "level": 2, "delegate": "[PUBLIC_KEY_HASH]",
    "round": 2, "estimated_time": "[TIMESTAMP]" },
  { "level": 2, "delegate": "[PUBLIC_KEY_HASH]",
    "round": 3, "estimated_time": "[TIMESTAMP]" },
  { "level": 2, "delegate": "[PUBLIC_KEY_HASH]",
    "round": 10, "estimated_time": "[TIMESTAMP]" } ]
protocol of proxy unspecified, using the node's protocol: ProtoGenesisGenesisGenesisGenesisGenesisGenesk612im

./tezos-client --mode proxy rpc get '/chains/main/blocks/head/helpers/current_level?offset=0'
{ "level": 1, "level_position": 0, "cycle": 0, "cycle_position": 0,
  "expected_commitment": false }
protocol of proxy unspecified, using the node's protocol: ProtoGenesisGenesisGenesisGenesisGenesisGenesk612im

./tezos-client --mode proxy rpc get /chains/main/blocks/head/helpers/endorsing_rights
[ { "level": 1,
    "delegates":
      [ { "delegate": "[PUBLIC_KEY_HASH]",
          "first_slot": 11, "endorsing_power": 50 },
        { "delegate": "[PUBLIC_KEY_HASH]",
          "first_slot": 4, "endorsing_power": 47 },
        { "delegate": "[PUBLIC_KEY_HASH]",
          "first_slot": 2, "endorsing_power": 46 },
        { "delegate": "[PUBLIC_KEY_HASH]",
          "first_slot": 1, "endorsing_power": 55 },
        { "delegate": "[PUBLIC_KEY_HASH]",
          "first_slot": 0, "endorsing_power": 58 } ] } ]
protocol of proxy unspecified, using the node's protocol: ProtoGenesisGenesisGenesisGenesisGenesisGenesk612im

./tezos-client --mode proxy rpc get /chains/main/blocks/head/helpers/levels_in_current_cycle
{ "first": 1, "last": 8 }
protocol of proxy unspecified, using the node's protocol: ProtoGenesisGenesisGenesisGenesisGenesisGenesk612im
